target/dump.vcd
$date
	2022-06-20 11:30
$end
$timescale 0ps $end
$scope dumped_signals $end
$var wire 1 ! ibus_stb $end
$var wire 1 " ibus_cyc $end
$var wire 30 # ibus_adr $end
$var wire 1 $ ibus_we $end
$var wire 1 % ibus_ack $end
$var wire 4 & ibus_sel $end
$var wire 32 ' ibus_dat_w $end
$var wire 32 ( ibus_dat_r $end
$var wire 1 ) dbus_stb $end
$var wire 1 * dbus_cyc $end
$var wire 30 + dbus_adr $end
$var wire 1 , dbus_we $end
$var wire 1 - dbus_ack $end
$var wire 4 . dbus_sel $end
$var wire 32 / dbus_dat_w $end
$var wire 32 0 dbus_dat_r $end
$var wire 1 1 scope_clk $end
$var wire 1 2 scope_trig $end
$unscope  $end
$enddefinitions  $end
$dumpvars
bx !
bx "
bxxxxxxxxxxxxxxxxxxxxxxxxxxxxxx #
bx $
bx %
bxxxx &
bxxxxxxxxxxxxxxxxxxxxxxxxxxxxxxxx '
bxxxxxxxxxxxxxxxxxxxxxxxxxxxxxxxx (
bx )
bx *
bxxxxxxxxxxxxxxxxxxxxxxxxxxxxxx +
bx ,
bx -
bxxxx .
bxxxxxxxxxxxxxxxxxxxxxxxxxxxxxxxx /
bxxxxxxxxxxxxxxxxxxxxxxxxxxxxxxxx 0
bx 1
bx 2
$end
#0
b0 !
b0 "
b000000000000000000000011100000 #
b0 $
b0 %
b1111 &
b00000000000000000000000000000000 '
b00001011000000000000000001101111 (
b0 )
b0 *
b000000000000000000000000000000 +
b1 ,
b0 -
b0001 .
b00000000000000000000000000000000 /
b00001011000000000000000001101111 0
b1 1
b0 2
#1
b0 !
b0 "
b000000000000000000000011100000 #
b0 $
b0 %
b1111 &
b00000000000000000000000000000000 '
b00001011000000000000000001101111 (
b0 )
b0 *
b000000000000000000000000000000 +
b1 ,
b0 -
b0001 .
b00000000000000000000000000000000 /
b00001011000000000000000001101111 0
b0 1
b0 2
#2
b0 !
b0 "
b000000000000000000000011100000 #
b0 $
b0 %
b1111 &
b00000000000000000000000000000000 '
b00001011000000000000000001101111 (
b0 )
b0 *
b000000000000000000000000000000 +
b1 ,
b0 -
b0001 .
b00000000000000000000000000000000 /
b00001011000000000000000001101111 0
b1 1
b0 2
#3
b0 !
b0 "
b000000000000000000000011100000 #
b0 $
b0 %
b1111 &
b00000000000000000000000000000000 '
b00001011000000000000000001101111 (
b0 )
b0 *
b000000000000000000000000000000 +
b1 ,
b0 -
b0001 .
b00000000000000000000000000000000 /
b00001011000000000000000001101111 0
b0 1
b0 2
#4
b0 !
b0 "
b000000000000000000000011100000 #
b0 $
b0 %
b1111 &
b00000000000000000000000000000000 '
b00001011000000000000000001101111 (
b0 )
b0 *
b000000000000000000000000000000 +
b1 ,
b0 -
b1111 .
b00010000000000000000000000000000 /
b00001011000000000000000001101111 0
b1 1
b0 2
#5
b0 !
b0 "
b000000000000000000000011100000 #
b0 $
b0 %
b1111 &
b00000000000000000000000000000000 '
b00001011000000000000000001101111 (
b0 )
b0 *
b000000000000000000000000000000 +
b1 ,
b0 -
b1111 .
b00010000000000000000000000000000 /
b00001011000000000000000001101111 0
b0 1
b0 2
#6
b0 !
b0 "
b000000000000000000000011100000 #
b0 $
b0 %
b1111 &
b00000000000000000000000000000000 '
b00001011000000000000000001101111 (
b0 )
b0 *
b000100000000000000000010011110 +
b0 ,
b0 -
b1111 .
b00000000000000000000000000000000 /
b00001011000000000000000001101111 0
b1 1
b0 2
#7
b0 !
b0 "
b000000000000000000000011100000 #
b0 $
b0 %
b1111 &
b00000000000000000000000000000000 '
b00001011000000000000000001101111 (
b0 )
b0 *
b000100000000000000000010011110 +
b0 ,
b0 -
b1111 .
b00000000000000000000000000000000 /
b00001011000000000000000001101111 0
b0 1
b0 2
#8
b0 !
b0 "
b000000000000000000000011100000 #
b0 $
b0 %
b1111 &
b00000000000000000000000000000000 '
b00001011000000000000000001101111 (
b0 )
b0 *
b000000000000000000000000000000 +
b1 ,
b0 -
b0001 .
b00000000000000000000000000000000 /
b00001011000000000000000001101111 0
b1 1
b0 2
#9
b0 !
b0 "
b000000000000000000000011100000 #
b0 $
b0 %
b1111 &
b00000000000000000000000000000000 '
b00001011000000000000000001101111 (
b0 )
b0 *
b000000000000000000000000000000 +
b1 ,
b0 -
b0001 .
b00000000000000000000000000000000 /
b00001011000000000000000001101111 0
b0 1
b0 2
#10
b0 !
b0 "
b000000000000000000000011100000 #
b0 $
b0 %
b1111 &
b00000000000000000000000000000000 '
b00001011000000000000000001101111 (
b0 )
b0 *
b000000000000000000000000000000 +
b1 ,
b0 -
b0001 .
b00000000000000000000000000000000 /
b00001011000000000000000001101111 0
b1 1
b0 2
#11
b0 !
b0 "
b000000000000000000000011100000 #
b0 $
b0 %
b1111 &
b00000000000000000000000000000000 '
b00001011000000000000000001101111 (
b0 )
b0 *
b000000000000000000000000000000 +
b1 ,
b0 -
b0001 .
b00000000000000000000000000000000 /
b00001011000000000000000001101111 0
b0 1
b0 2
#12
b0 !
b0 "
b000000000000000000000011100000 #
b0 $
b0 %
b1111 &
b00000000000000000000000000000000 '
b00001011000000000000000001101111 (
b0 )
b0 *
b000000000000000000000000000000 +
b1 ,
b0 -
b0001 .
b00000000000000000000000000000000 /
b00001011000000000000000001101111 0
b1 1
b0 2
#13
b0 !
b0 "
b000000000000000000000011100000 #
b0 $
b0 %
b1111 &
b00000000000000000000000000000000 '
b00001011000000000000000001101111 (
b0 )
b0 *
b000000000000000000000000000000 +
b1 ,
b0 -
b0001 .
b00000000000000000000000000000000 /
b00001011000000000000000001101111 0
b0 1
b0 2
#14
b0 !
b0 "
b000000000000000000000011100000 #
b0 $
b0 %
b1111 &
b00000000000000000000000000000000 '
b00001011000000000000000001101111 (
b0 )
b0 *
b000000000000000000000000000000 +
b1 ,
b0 -
b1111 .
b00010000000000000000000000000000 /
b00001011000000000000000001101111 0
b1 1
b0 2
#15
b0 !
b0 "
b000000000000000000000011100000 #
b0 $
b0 %
b1111 &
b00000000000000000000000000000000 '
b00001011000000000000000001101111 (
b0 )
b0 *
b000000000000000000000000000000 +
b1 ,
b0 -
b1111 .
b00010000000000000000000000000000 /
b00001011000000000000000001101111 0
b0 1
b0 2
#16
b0 !
b0 "
b000000000000000000000011100000 #
b0 $
b0 %
b1111 &
b00000000000000000000000000000000 '
b00001011000000000000000001101111 (
b0 )
b0 *
b000100000000000000000010011110 +
b0 ,
b0 -
b1111 .
b00000000000000000000000000000000 /
b00001011000000000000000001101111 0
b1 1
b0 2
#17
b0 !
b0 "
b000000000000000000000011100000 #
b0 $
b0 %
b1111 &
b00000000000000000000000000000000 '
b00001011000000000000000001101111 (
b0 )
b0 *
b000100000000000000000010011110 +
b0 ,
b0 -
b1111 .
b00000000000000000000000000000000 /
b00001011000000000000000001101111 0
b0 1
b0 2
#18
b0 !
b0 "
b000000000000000000000011100000 #
b0 $
b0 %
b1111 &
b00000000000000000000000000000000 '
b00001011000000000000000001101111 (
b0 )
b0 *
b000000000000000000000000000000 +
b1 ,
b0 -
b0001 .
b00000000000000000000000000000000 /
b00001011000000000000000001101111 0
b1 1
b0 2
#19
b0 !
b0 "
b000000000000000000000011100000 #
b0 $
b0 %
b1111 &
b00000000000000000000000000000000 '
b00001011000000000000000001101111 (
b0 )
b0 *
b000000000000000000000000000000 +
b1 ,
b0 -
b0001 .
b00000000000000000000000000000000 /
b00001011000000000000000001101111 0
b0 1
b0 2
#20
b0 !
b0 "
b000000000000000000000011100000 #
b0 $
b0 %
b1111 &
b00000000000000000000000000000000 '
b00001011000000000000000001101111 (
b0 )
b0 *
b000000000000000000000000000000 +
b1 ,
b0 -
b0001 .
b00000000000000000000000000000000 /
b00001011000000000000000001101111 0
b1 1
b0 2
#21
b0 !
b0 "
b000000000000000000000011100000 #
b0 $
b0 %
b1111 &
b00000000000000000000000000000000 '
b00001011000000000000000001101111 (
b0 )
b0 *
b000000000000000000000000000000 +
b1 ,
b0 -
b0001 .
b00000000000000000000000000000000 /
b00001011000000000000000001101111 0
b0 1
b0 2
#22
b0 !
b0 "
b000000000000000000000011100000 #
b0 $
b0 %
b1111 &
b00000000000000000000000000000000 '
b00001011000000000000000001101111 (
b0 )
b0 *
b000000000000000000000000000000 +
b1 ,
b0 -
b0001 .
b00000000000000000000000000000000 /
b00001011000000000000000001101111 0
b1 1
b0 2
#23
b0 !
b0 "
b000000000000000000000011100000 #
b0 $
b0 %
b1111 &
b00000000000000000000000000000000 '
b00001011000000000000000001101111 (
b0 )
b0 *
b000000000000000000000000000000 +
b1 ,
b0 -
b0001 .
b00000000000000000000000000000000 /
b00001011000000000000000001101111 0
b0 1
b0 2
#24
b0 !
b0 "
b000000000000000000000011100000 #
b0 $
b0 %
b1111 &
b00000000000000000000000000000000 '
b00001011000000000000000001101111 (
b0 )
b0 *
b000000000000000000000000000000 +
b1 ,
b0 -
b1111 .
b00010000000000000000000000000000 /
b00001011000000000000000001101111 0
b1 1
b0 2
#25
b0 !
b0 "
b000000000000000000000011100000 #
b0 $
b0 %
b1111 &
b00000000000000000000000000000000 '
b00001011000000000000000001101111 (
b0 )
b0 *
b000000000000000000000000000000 +
b1 ,
b0 -
b1111 .
b00010000000000000000000000000000 /
b00001011000000000000000001101111 0
b0 1
b0 2
#26
b0 !
b0 "
b000000000000000000000011100000 #
b0 $
b0 %
b1111 &
b00000000000000000000000000000000 '
b00001011000000000000000001101111 (
b0 )
b0 *
b000100000000000000000010011110 +
b0 ,
b0 -
b1111 .
b00000000000000000000000000000000 /
b00001011000000000000000001101111 0
b1 1
b0 2
#27
b0 !
b0 "
b000000000000000000000011100000 #
b0 $
b0 %
b1111 &
b00000000000000000000000000000000 '
b00001011000000000000000001101111 (
b0 )
b0 *
b000100000000000000000010011110 +
b0 ,
b0 -
b1111 .
b00000000000000000000000000000000 /
b00001011000000000000000001101111 0
b0 1
b0 2
#28
b0 !
b0 "
b000000000000000000000011100000 #
b0 $
b0 %
b1111 &
b00000000000000000000000000000000 '
b00001011000000000000000001101111 (
b0 )
b0 *
b000000000000000000000000000000 +
b1 ,
b0 -
b0001 .
b00000000000000000000000000000000 /
b00001011000000000000000001101111 0
b1 1
b0 2
#29
b0 !
b0 "
b000000000000000000000011100000 #
b0 $
b0 %
b1111 &
b00000000000000000000000000000000 '
b00001011000000000000000001101111 (
b0 )
b0 *
b000000000000000000000000000000 +
b1 ,
b0 -
b0001 .
b00000000000000000000000000000000 /
b00001011000000000000000001101111 0
b0 1
b0 2
#30
b0 !
b0 "
b000000000000000000000011100000 #
b0 $
b0 %
b1111 &
b00000000000000000000000000000000 '
b00001011000000000000000001101111 (
b0 )
b0 *
b000000000000000000000000000000 +
b1 ,
b0 -
b0001 .
b00000000000000000000000000000000 /
b00001011000000000000000001101111 0
b1 1
b0 2
#31
b0 !
b0 "
b000000000000000000000011100000 #
b0 $
b0 %
b1111 &
b00000000000000000000000000000000 '
b00001011000000000000000001101111 (
b0 )
b0 *
b000000000000000000000000000000 +
b1 ,
b0 -
b0001 .
b00000000000000000000000000000000 /
b00001011000000000000000001101111 0
b0 1
b0 2
#32
b0 !
b0 "
b000000000000000000000011100000 #
b0 $
b0 %
b1111 &
b00000000000000000000000000000000 '
b00001011000000000000000001101111 (
b0 )
b0 *
b000000000000000000000000000000 +
b1 ,
b0 -
b0001 .
b00000000000000000000000000000000 /
b00001011000000000000000001101111 0
b1 1
b1 2
#33
b0 !
b0 "
b000000000000000000000011100000 #
b0 $
b0 %
b1111 &
b00000000000000000000000000000000 '
b00001011000000000000000001101111 (
b0 )
b0 *
b000000000000000000000000000000 +
b1 ,
b0 -
b0001 .
b00000000000000000000000000000000 /
b00001011000000000000000001101111 0
b0 1
b1 2
#34
b0 !
b0 "
b000000000000000000000011100000 #
b0 $
b0 %
b1111 &
b00000000000000000000000000000000 '
b00001011000000000000000001101111 (
b0 )
b0 *
b000000000000000000000000000000 +
b1 ,
b0 -
b1111 .
b00010000000000000000000000000000 /
b00001011000000000000000001101111 0
b1 1
b1 2
#35
b0 !
b0 "
b000000000000000000000011100000 #
b0 $
b0 %
b1111 &
b00000000000000000000000000000000 '
b00001011000000000000000001101111 (
b0 )
b0 *
b000000000000000000000000000000 +
b1 ,
b0 -
b1111 .
b00010000000000000000000000000000 /
b00001011000000000000000001101111 0
b0 1
b1 2
#36
b0 !
b0 "
b000000000000000000000011100000 #
b0 $
b0 %
b1111 &
b00000000000000000000000000000000 '
b00001011000000000000000001101111 (
b0 )
b0 *
b000100000000000000000010011110 +
b0 ,
b0 -
b1111 .
b00000000000000000000000000000000 /
b00001011000000000000000001101111 0
b1 1
b1 2
#37
b0 !
b0 "
b000000000000000000000011100000 #
b0 $
b0 %
b1111 &
b00000000000000000000000000000000 '
b00001011000000000000000001101111 (
b0 )
b0 *
b000100000000000000000010011110 +
b0 ,
b0 -
b1111 .
b00000000000000000000000000000000 /
b00001011000000000000000001101111 0
b0 1
b1 2
#38
b0 !
b0 "
b000000000000000000000011100000 #
b0 $
b0 %
b1111 &
b00000000000000000000000000000000 '
b00001011000000000000000001101111 (
b0 )
b0 *
b000000000000000000000000000000 +
b1 ,
b0 -
b0001 .
b00000000000000000000000000000000 /
b00001011000000000000000001101111 0
b1 1
b1 2
#39
b0 !
b0 "
b000000000000000000000011100000 #
b0 $
b0 %
b1111 &
b00000000000000000000000000000000 '
b00001011000000000000000001101111 (
b0 )
b0 *
b000000000000000000000000000000 +
b1 ,
b0 -
b0001 .
b00000000000000000000000000000000 /
b00001011000000000000000001101111 0
b0 1
b1 2
#40
b0 !
b0 "
b000000000000000000000011100000 #
b0 $
b0 %
b1111 &
b00000000000000000000000000000000 '
b00001011000000000000000001101111 (
b0 )
b0 *
b000000000000000000000000000000 +
b1 ,
b0 -
b0001 .
b00000000000000000000000000000000 /
b00001011000000000000000001101111 0
b1 1
b1 2
#41
b0 !
b0 "
b000000000000000000000011100000 #
b0 $
b0 %
b1111 &
b00000000000000000000000000000000 '
b00001011000000000000000001101111 (
b0 )
b0 *
b000000000000000000000000000000 +
b1 ,
b0 -
b0001 .
b00000000000000000000000000000000 /
b00001011000000000000000001101111 0
b0 1
b1 2
#42
b0 !
b0 "
b000000000000000000000011100000 #
b0 $
b0 %
b1111 &
b00000000000000000000000000000000 '
b00001011000000000000000001101111 (
b0 )
b0 *
b000000000000000000000000000000 +
b1 ,
b0 -
b0001 .
b00000000000000000000000000000000 /
b00001011000000000000000001101111 0
b1 1
b1 2
#43
b0 !
b0 "
b000000000000000000000011100000 #
b0 $
b0 %
b1111 &
b00000000000000000000000000000000 '
b00001011000000000000000001101111 (
b0 )
b0 *
b000000000000000000000000000000 +
b1 ,
b0 -
b0001 .
b00000000000000000000000000000000 /
b00001011000000000000000001101111 0
b0 1
b1 2
#44
b0 !
b0 "
b000000000000000000000011100000 #
b0 $
b0 %
b1111 &
b00000000000000000000000000000000 '
b00001011000000000000000001101111 (
b0 )
b0 *
b000000000000000000000000000000 +
b1 ,
b0 -
b1111 .
b00010000000000000000000000000000 /
b00001011000000000000000001101111 0
b1 1
b1 2
#45
b0 !
b0 "
b000000000000000000000011100000 #
b0 $
b0 %
b1111 &
b00000000000000000000000000000000 '
b00001011000000000000000001101111 (
b0 )
b0 *
b000000000000000000000000000000 +
b1 ,
b0 -
b1111 .
b00010000000000000000000000000000 /
b00001011000000000000000001101111 0
b0 1
b1 2
#46
b0 !
b0 "
b000000000000000000000011100000 #
b0 $
b0 %
b1111 &
b00000000000000000000000000000000 '
b00001011000000000000000001101111 (
b0 )
b0 *
b000100000000000000000010011110 +
b0 ,
b0 -
b1111 .
b00000000000000000000000000000000 /
b00001011000000000000000001101111 0
b1 1
b1 2
#47
b0 !
b0 "
b000000000000000000000011100000 #
b0 $
b0 %
b1111 &
b00000000000000000000000000000000 '
b00001011000000000000000001101111 (
b0 )
b0 *
b000100000000000000000010011110 +
b0 ,
b0 -
b1111 .
b00000000000000000000000000000000 /
b00001011000000000000000001101111 0
b0 1
b1 2
#48
b0 !
b0 "
b000000000000000000000011100000 #
b0 $
b0 %
b1111 &
b00000000000000000000000000000000 '
b00001011000000000000000001101111 (
b0 )
b0 *
b000000000000000000000000000000 +
b1 ,
b0 -
b0001 .
b00000000000000000000000000000000 /
b00001011000000000000000001101111 0
b1 1
b1 2
#49
b0 !
b0 "
b000000000000000000000011100000 #
b0 $
b0 %
b1111 &
b00000000000000000000000000000000 '
b00001011000000000000000001101111 (
b0 )
b0 *
b000000000000000000000000000000 +
b1 ,
b0 -
b0001 .
b00000000000000000000000000000000 /
b00001011000000000000000001101111 0
b0 1
b1 2
#50
b0 !
b0 "
b000000000000000000000011100000 #
b0 $
b0 %
b1111 &
b00000000000000000000000000000000 '
b00001011000000000000000001101111 (
b0 )
b0 *
b000000000000000000000000000000 +
b1 ,
b0 -
b0001 .
b00000000000000000000000000000000 /
b00001011000000000000000001101111 0
b1 1
b1 2
#51
b0 !
b0 "
b000000000000000000000011100000 #
b0 $
b0 %
b1111 &
b00000000000000000000000000000000 '
b00001011000000000000000001101111 (
b0 )
b0 *
b000000000000000000000000000000 +
b1 ,
b0 -
b0001 .
b00000000000000000000000000000000 /
b00001011000000000000000001101111 0
b0 1
b1 2
#52
b0 !
b0 "
b000000000000000000000011100000 #
b0 $
b0 %
b1111 &
b00000000000000000000000000000000 '
b00001011000000000000000001101111 (
b0 )
b0 *
b000000000000000000000000000000 +
b1 ,
b0 -
b0001 .
b00000000000000000000000000000000 /
b00001011000000000000000001101111 0
b1 1
b1 2
#53
b0 !
b0 "
b000000000000000000000011100000 #
b0 $
b0 %
b1111 &
b00000000000000000000000000000000 '
b00001011000000000000000001101111 (
b0 )
b0 *
b000000000000000000000000000000 +
b1 ,
b0 -
b0001 .
b00000000000000000000000000000000 /
b00001011000000000000000001101111 0
b0 1
b1 2
#54
b0 !
b0 "
b000000000000000000000011100000 #
b0 $
b0 %
b1111 &
b00000000000000000000000000000000 '
b00001011000000000000000001101111 (
b0 )
b0 *
b000000000000000000000000000000 +
b1 ,
b0 -
b1111 .
b00010000000000000000000000000000 /
b00001011000000000000000001101111 0
b1 1
b1 2
#55
b0 !
b0 "
b000000000000000000000011100000 #
b0 $
b0 %
b1111 &
b00000000000000000000000000000000 '
b00001011000000000000000001101111 (
b0 )
b0 *
b000000000000000000000000000000 +
b1 ,
b0 -
b1111 .
b00010000000000000000000000000000 /
b00001011000000000000000001101111 0
b0 1
b1 2
#56
b0 !
b0 "
b000000000000000000000011100000 #
b0 $
b0 %
b1111 &
b00000000000000000000000000000000 '
b00001011000000000000000001101111 (
b0 )
b0 *
b000100000000000000000010011110 +
b0 ,
b0 -
b1111 .
b00000000000000000000000000000000 /
b00001011000000000000000001101111 0
b1 1
b1 2
#57
b0 !
b0 "
b000000000000000000000011100000 #
b0 $
b0 %
b1111 &
b00000000000000000000000000000000 '
b00001011000000000000000001101111 (
b0 )
b0 *
b000100000000000000000010011110 +
b0 ,
b0 -
b1111 .
b00000000000000000000000000000000 /
b00001011000000000000000001101111 0
b0 1
b1 2
#58
b0 !
b0 "
b000000000000000000000011100000 #
b0 $
b0 %
b1111 &
b00000000000000000000000000000000 '
b00001011000000000000000001101111 (
b0 )
b0 *
b000000000000000000000000000000 +
b1 ,
b0 -
b0001 .
b00000000000000000000000000000000 /
b00001011000000000000000001101111 0
b1 1
b1 2
#59
b0 !
b0 "
b000000000000000000000011100000 #
b0 $
b0 %
b1111 &
b00000000000000000000000000000000 '
b00001011000000000000000001101111 (
b0 )
b0 *
b000000000000000000000000000000 +
b1 ,
b0 -
b0001 .
b00000000000000000000000000000000 /
b00001011000000000000000001101111 0
b0 1
b1 2
#60
b0 !
b0 "
b000000000000000000000011100000 #
b0 $
b0 %
b1111 &
b00000000000000000000000000000000 '
b00001011000000000000000001101111 (
b0 )
b0 *
b000000000000000000000000000000 +
b1 ,
b0 -
b0001 .
b00000000000000000000000000000000 /
b00001011000000000000000001101111 0
b1 1
b1 2
#61
b0 !
b0 "
b000000000000000000000011100000 #
b0 $
b0 %
b1111 &
b00000000000000000000000000000000 '
b00001011000000000000000001101111 (
b0 )
b0 *
b000000000000000000000000000000 +
b1 ,
b0 -
b0001 .
b00000000000000000000000000000000 /
b00001011000000000000000001101111 0
b0 1
b1 2
#62
b0 !
b0 "
b000000000000000000000011100000 #
b0 $
b0 %
b1111 &
b00000000000000000000000000000000 '
b00001011000000000000000001101111 (
b0 )
b0 *
b000000000000000000000000000000 +
b1 ,
b0 -
b0001 .
b00000000000000000000000000000000 /
b00001011000000000000000001101111 0
b1 1
b1 2
#63
b0 !
b0 "
b000000000000000000000011100000 #
b0 $
b0 %
b1111 &
b00000000000000000000000000000000 '
b00001011000000000000000001101111 (
b0 )
b0 *
b000000000000000000000000000000 +
b1 ,
b0 -
b0001 .
b00000000000000000000000000000000 /
b00001011000000000000000001101111 0
b0 1
b1 2
#64
b0 !
b0 "
b000000000000000000000011100000 #
b0 $
b0 %
b1111 &
b00000000000000000000000000000000 '
b00001011000000000000000001101111 (
b0 )
b0 *
b000000000000000000000000000000 +
b1 ,
b0 -
b1111 .
b00010000000000000000000000000000 /
b00001011000000000000000001101111 0
b1 1
b1 2
#65
b0 !
b0 "
b000000000000000000000011100000 #
b0 $
b0 %
b1111 &
b00000000000000000000000000000000 '
b00001011000000000000000001101111 (
b0 )
b0 *
b000000000000000000000000000000 +
b1 ,
b0 -
b1111 .
b00010000000000000000000000000000 /
b00001011000000000000000001101111 0
b0 1
b1 2
#66
b0 !
b0 "
b000000000000000000000011100000 #
b0 $
b0 %
b1111 &
b00000000000000000000000000000000 '
b00001011000000000000000001101111 (
b0 )
b0 *
b000100000000000000000010011110 +
b0 ,
b0 -
b1111 .
b00000000000000000000000000000000 /
b00001011000000000000000001101111 0
b1 1
b1 2
#67
b0 !
b0 "
b000000000000000000000011100000 #
b0 $
b0 %
b1111 &
b00000000000000000000000000000000 '
b00001011000000000000000001101111 (
b0 )
b0 *
b000100000000000000000010011110 +
b0 ,
b0 -
b1111 .
b00000000000000000000000000000000 /
b00001011000000000000000001101111 0
b0 1
b1 2
#68
b0 !
b0 "
b000000000000000000000011100000 #
b0 $
b0 %
b1111 &
b00000000000000000000000000000000 '
b00001011000000000000000001101111 (
b0 )
b0 *
b000000000000000000000000000000 +
b1 ,
b0 -
b0001 .
b00000000000000000000000000000000 /
b00001011000000000000000001101111 0
b1 1
b1 2
#69
b0 !
b0 "
b000000000000000000000011100000 #
b0 $
b0 %
b1111 &
b00000000000000000000000000000000 '
b00001011000000000000000001101111 (
b0 )
b0 *
b000000000000000000000000000000 +
b1 ,
b0 -
b0001 .
b00000000000000000000000000000000 /
b00001011000000000000000001101111 0
b0 1
b1 2
#70
b0 !
b0 "
b000000000000000000000011100000 #
b0 $
b0 %
b1111 &
b00000000000000000000000000000000 '
b00001011000000000000000001101111 (
b0 )
b0 *
b000000000000000000000000000000 +
b1 ,
b0 -
b0001 .
b00000000000000000000000000000000 /
b00001011000000000000000001101111 0
b1 1
b1 2
#71
b0 !
b0 "
b000000000000000000000011100000 #
b0 $
b0 %
b1111 &
b00000000000000000000000000000000 '
b00001011000000000000000001101111 (
b0 )
b0 *
b000000000000000000000000000000 +
b1 ,
b0 -
b0001 .
b00000000000000000000000000000000 /
b00001011000000000000000001101111 0
b0 1
b1 2
#72
b0 !
b0 "
b000000000000000000000011100000 #
b0 $
b0 %
b1111 &
b00000000000000000000000000000000 '
b00001011000000000000000001101111 (
b0 )
b0 *
b000000000000000000000000000000 +
b1 ,
b0 -
b0001 .
b00000000000000000000000000000000 /
b00001011000000000000000001101111 0
b1 1
b1 2
#73
b0 !
b0 "
b000000000000000000000011100000 #
b0 $
b0 %
b1111 &
b00000000000000000000000000000000 '
b00001011000000000000000001101111 (
b0 )
b0 *
b000000000000000000000000000000 +
b1 ,
b0 -
b0001 .
b00000000000000000000000000000000 /
b00001011000000000000000001101111 0
b0 1
b1 2
#74
b0 !
b0 "
b000000000000000000000011100000 #
b0 $
b0 %
b1111 &
b00000000000000000000000000000000 '
b00001011000000000000000001101111 (
b0 )
b0 *
b000000000000000000000000000000 +
b1 ,
b0 -
b1111 .
b00010000000000000000000000000000 /
b00001011000000000000000001101111 0
b1 1
b1 2
#75
b0 !
b0 "
b000000000000000000000011100000 #
b0 $
b0 %
b1111 &
b00000000000000000000000000000000 '
b00001011000000000000000001101111 (
b0 )
b0 *
b000000000000000000000000000000 +
b1 ,
b0 -
b1111 .
b00010000000000000000000000000000 /
b00001011000000000000000001101111 0
b0 1
b1 2
#76
b0 !
b0 "
b000000000000000000000011100000 #
b0 $
b0 %
b1111 &
b00000000000000000000000000000000 '
b00001011000000000000000001101111 (
b0 )
b0 *
b000100000000000000000010011110 +
b0 ,
b0 -
b1111 .
b00000000000000000000000000000000 /
b00001011000000000000000001101111 0
b1 1
b1 2
#77
b0 !
b0 "
b000000000000000000000011100000 #
b0 $
b0 %
b1111 &
b00000000000000000000000000000000 '
b00001011000000000000000001101111 (
b0 )
b0 *
b000100000000000000000010011110 +
b0 ,
b0 -
b1111 .
b00000000000000000000000000000000 /
b00001011000000000000000001101111 0
b0 1
b1 2
#78
b0 !
b0 "
b000000000000000000000011100000 #
b0 $
b0 %
b1111 &
b00000000000000000000000000000000 '
b00001011000000000000000001101111 (
b0 )
b0 *
b000000000000000000000000000000 +
b1 ,
b0 -
b0001 .
b00000000000000000000000000000000 /
b00001011000000000000000001101111 0
b1 1
b1 2
#79
b0 !
b0 "
b000000000000000000000011100000 #
b0 $
b0 %
b1111 &
b00000000000000000000000000000000 '
b00001011000000000000000001101111 (
b0 )
b0 *
b000000000000000000000000000000 +
b1 ,
b0 -
b0001 .
b00000000000000000000000000000000 /
b00001011000000000000000001101111 0
b0 1
b1 2
#80
b0 !
b0 "
b000000000000000000000011100000 #
b0 $
b0 %
b1111 &
b00000000000000000000000000000000 '
b00001011000000000000000001101111 (
b0 )
b0 *
b000000000000000000000000000000 +
b1 ,
b0 -
b0001 .
b00000000000000000000000000000000 /
b00001011000000000000000001101111 0
b1 1
b1 2
#81
b0 !
b0 "
b000000000000000000000011100000 #
b0 $
b0 %
b1111 &
b00000000000000000000000000000000 '
b00001011000000000000000001101111 (
b0 )
b0 *
b000000000000000000000000000000 +
b1 ,
b0 -
b0001 .
b00000000000000000000000000000000 /
b00001011000000000000000001101111 0
b0 1
b1 2
#82
b0 !
b0 "
b000000000000000000000011100000 #
b0 $
b0 %
b1111 &
b00000000000000000000000000000000 '
b00001011000000000000000001101111 (
b0 )
b0 *
b000000000000000000000000000000 +
b1 ,
b0 -
b0001 .
b00000000000000000000000000000000 /
b00001011000000000000000001101111 0
b1 1
b1 2
#83
b0 !
b0 "
b000000000000000000000011100000 #
b0 $
b0 %
b1111 &
b00000000000000000000000000000000 '
b00001011000000000000000001101111 (
b0 )
b0 *
b000000000000000000000000000000 +
b1 ,
b0 -
b0001 .
b00000000000000000000000000000000 /
b00001011000000000000000001101111 0
b0 1
b1 2
#84
b0 !
b0 "
b000000000000000000000011100000 #
b0 $
b0 %
b1111 &
b00000000000000000000000000000000 '
b00001011000000000000000001101111 (
b0 )
b0 *
b000000000000000000000000000000 +
b1 ,
b0 -
b1111 .
b00010000000000000000000000000000 /
b00001011000000000000000001101111 0
b1 1
b1 2
#85
b0 !
b0 "
b000000000000000000000011100000 #
b0 $
b0 %
b1111 &
b00000000000000000000000000000000 '
b00001011000000000000000001101111 (
b0 )
b0 *
b000000000000000000000000000000 +
b1 ,
b0 -
b1111 .
b00010000000000000000000000000000 /
b00001011000000000000000001101111 0
b0 1
b1 2
#86
b0 !
b0 "
b000000000000000000000011100000 #
b0 $
b0 %
b1111 &
b00000000000000000000000000000000 '
b00001011000000000000000001101111 (
b0 )
b0 *
b000100000000000000000010011110 +
b0 ,
b0 -
b1111 .
b00000000000000000000000000000000 /
b00001011000000000000000001101111 0
b1 1
b1 2
#87
b0 !
b0 "
b000000000000000000000011100000 #
b0 $
b0 %
b1111 &
b00000000000000000000000000000000 '
b00001011000000000000000001101111 (
b0 )
b0 *
b000100000000000000000010011110 +
b0 ,
b0 -
b1111 .
b00000000000000000000000000000000 /
b00001011000000000000000001101111 0
b0 1
b1 2
#88
b0 !
b0 "
b000000000000000000000011100000 #
b0 $
b0 %
b1111 &
b00000000000000000000000000000000 '
b00001011000000000000000001101111 (
b0 )
b0 *
b000000000000000000000000000000 +
b1 ,
b0 -
b0001 .
b00000000000000000000000000000000 /
b00001011000000000000000001101111 0
b1 1
b1 2
#89
b0 !
b0 "
b000000000000000000000011100000 #
b0 $
b0 %
b1111 &
b00000000000000000000000000000000 '
b00001011000000000000000001101111 (
b0 )
b0 *
b000000000000000000000000000000 +
b1 ,
b0 -
b0001 .
b00000000000000000000000000000000 /
b00001011000000000000000001101111 0
b0 1
b1 2
#90
b0 !
b0 "
b000000000000000000000011100000 #
b0 $
b0 %
b1111 &
b00000000000000000000000000000000 '
b00001011000000000000000001101111 (
b0 )
b0 *
b000000000000000000000000000000 +
b1 ,
b0 -
b0001 .
b00000000000000000000000000000000 /
b00001011000000000000000001101111 0
b1 1
b1 2
#91
b0 !
b0 "
b000000000000000000000011100000 #
b0 $
b0 %
b1111 &
b00000000000000000000000000000000 '
b00001011000000000000000001101111 (
b0 )
b0 *
b000000000000000000000000000000 +
b1 ,
b0 -
b0001 .
b00000000000000000000000000000000 /
b00001011000000000000000001101111 0
b0 1
b1 2
#92
b0 !
b0 "
b000000000000000000000011100000 #
b0 $
b0 %
b1111 &
b00000000000000000000000000000000 '
b00001011000000000000000001101111 (
b0 )
b0 *
b000000000000000000000000000000 +
b1 ,
b0 -
b0001 .
b00000000000000000000000000000000 /
b00001011000000000000000001101111 0
b1 1
b1 2
